<svg width="33" height="33" viewBox="0 0 33 33" fill="none" xmlns="http://www.w3.org/2000/svg">
<path d="M22.0299 14.9424H17.9186L16.8975 17.9512H19.9742C21.1028 17.9512 22.0299 18.8447 22.0299 19.9615C22.0299 21.0652 21.1163 21.9718 19.9742 21.9718H16.8975" stroke="#5586AE" stroke-width="1.08149" stroke-linecap="round" stroke-linejoin="round"/>
<path d="M13.403 21.9585V14.9424L11.3877 17.1366" stroke="#5586AE" stroke-width="1.08149" stroke-linecap="round" stroke-linejoin="round"/>
<path d="M19.3702 6.58566L16.71 3.34033" stroke="#5586AE" stroke-width="1.08149" stroke-linecap="round" stroke-linejoin="round"/>
<path d="M26.2339 10.9607C27.7253 12.9053 28.6523 15.3097 28.6523 17.9376C28.6523 24.3889 23.3049 29.6182 16.708 29.6182C10.1111 29.6182 4.76367 24.3889 4.76367 17.9376C4.76367 11.4862 10.1111 6.25684 16.708 6.25684C17.6217 6.25684 18.5084 6.37515 19.3683 6.57224" stroke="#5586AE" stroke-width="1.08149" stroke-linecap="round" stroke-linejoin="round"/>
</svg>
