<svg width="33" height="33" viewBox="0 0 33 33" fill="none" xmlns="http://www.w3.org/2000/svg">
<path d="M21.7047 14.9424H17.5934L16.5723 17.9512H19.649C20.7776 17.9512 21.7047 18.8447 21.7047 19.9615C21.7047 21.0652 20.7911 21.9718 19.649 21.9718H16.5723" stroke="#5586AE" stroke-width="1.08149" stroke-linecap="round" stroke-linejoin="round"/>
<path d="M13.0788 21.9585V14.9424L11.0635 17.1366" stroke="#5586AE" stroke-width="1.08149" stroke-linecap="round" stroke-linejoin="round"/>
<path d="M13.7235 6.58566L16.3838 3.34033" stroke="#5586AE" stroke-width="1.08149" stroke-linecap="round" stroke-linejoin="round"/>
<path d="M6.85787 10.9607C5.36651 12.9053 4.43945 15.3097 4.43945 17.9376C4.43945 24.3889 9.78685 29.6182 16.3838 29.6182C22.9807 29.6182 28.3281 24.3889 28.3281 17.9376C28.3281 11.4862 22.9807 6.25684 16.3838 6.25684C15.4701 6.25684 14.5834 6.37515 13.7235 6.57224" stroke="#5586AE" stroke-width="1.08149" stroke-linecap="round" stroke-linejoin="round"/>
</svg>
