<svg width="17" height="16" viewBox="0 0 17 16" fill="none" xmlns="http://www.w3.org/2000/svg">
<g clip-path="url(#clip0)">
<ellipse cx="8.12695" cy="8" rx="8" ry="8" fill="#86BBD8"/>
<path d="M10.5115 4.25684H5.74273C4.98157 4.25684 4.3623 4.8761 4.3623 5.63726V10.406C4.3623 11.1671 4.98157 11.7866 5.74273 11.7866H10.5115C11.2726 11.7866 11.8921 11.1673 11.8921 10.406V5.63726C11.8921 4.8761 11.2728 4.25684 10.5115 4.25684ZM8.12709 10.5005C6.7604 10.5005 5.64843 9.3885 5.64843 8.02163C5.64843 6.65493 6.7604 5.54296 8.12709 5.54296C9.49397 5.54296 10.6059 6.65493 10.6059 8.02163C10.6059 9.38832 9.49379 10.5005 8.12709 10.5005ZM10.6856 6.05545C10.3621 6.05545 10.099 5.79234 10.099 5.46898C10.099 5.14563 10.3621 4.88252 10.6856 4.88252C11.009 4.88252 11.2721 5.14563 11.2721 5.46898C11.2721 5.79234 11.009 6.05545 10.6856 6.05545Z" fill="white"/>
<path d="M8.12672 6.59033C7.33775 6.59033 6.69531 7.23241 6.69531 8.02138C6.69531 8.8107 7.33775 9.45296 8.12672 9.45296C8.91604 9.45296 9.55794 8.8107 9.55794 8.02138C9.55794 7.23259 8.91586 6.59033 8.12672 6.59033Z" fill="white"/>
<path d="M8.12695 0C3.70885 0 0.126953 3.5819 0.126953 8C0.126953 12.4181 3.70885 16 8.12695 16C12.5451 16 16.127 12.4181 16.127 8C16.127 3.5819 12.5451 0 8.12695 0ZM12.9392 10.4059C12.9392 11.7448 11.8502 12.8338 10.5113 12.8338H5.74259C4.40388 12.8338 3.31472 11.7448 3.31472 10.4059V5.6372C3.31472 4.29849 4.40388 3.20934 5.74259 3.20934H10.5113C11.8502 3.20934 12.9392 4.29849 12.9392 5.6372V10.4059Z" fill="white"/>
</g>
<defs>
<clipPath id="clip0">
<rect width="17" height="16" fill="white"/>
</clipPath>
</defs>
</svg>
