<svg width="15" height="13" viewBox="0 0 15 13" fill="none" xmlns="http://www.w3.org/2000/svg">
<path d="M13.589 8.50471V7.31329C13.589 5.79278 13.0329 4.34519 12.0199 3.21871C12.0687 3.1224 12.0939 3.01445 12.0912 2.90505C12.0868 2.7241 12.0108 2.55772 11.8772 2.43658C10.6632 1.33605 9.09513 0.72998 7.46169 0.72998C5.82826 0.72998 4.26014 1.33605 3.04624 2.43658C2.91265 2.5577 2.83661 2.72407 2.83219 2.90505C2.82953 3.01448 2.85473 3.1224 2.90347 3.21874C1.89047 4.34521 1.33437 5.7928 1.33437 7.31332V8.50474C0.943011 8.59544 0.650391 8.94667 0.650391 9.36522V11.6451C0.650391 12.1323 1.04672 12.5287 1.53392 12.5287H2.0495C2.13414 12.7929 2.38198 12.9847 2.67388 12.9847H3.12986C3.49132 12.9847 3.7854 12.6906 3.7854 12.3291V8.68125C3.7854 8.3198 3.49132 8.02571 3.12986 8.02571H2.67388C2.38198 8.02571 2.13414 8.21752 2.0495 8.4817H1.73347V7.31329C1.73347 5.89979 2.24764 4.55386 3.18451 3.50335C3.42123 3.62651 3.7187 3.59536 3.92782 3.40597C4.07323 3.27427 4.22758 3.14932 4.38658 3.03462C4.47595 2.97013 4.49614 2.8454 4.43165 2.75602C4.36718 2.66668 4.24248 2.64646 4.15308 2.71095C3.98216 2.83427 3.81624 2.96858 3.65992 3.11016C3.55778 3.20264 3.40261 3.19998 3.30672 3.10407C3.25627 3.05362 3.22943 2.98638 3.23118 2.91479C3.23291 2.84412 3.26245 2.77928 3.31433 2.73224C4.45464 1.69844 5.92755 1.12908 7.46169 1.12908C8.99583 1.12908 10.4688 1.69844 11.6091 2.73224C11.661 2.77928 11.6905 2.84412 11.6922 2.91479C11.694 2.98638 11.6672 3.05362 11.6167 3.10407C11.5208 3.19998 11.3656 3.20267 11.2635 3.11016C10.2181 2.16336 8.86794 1.64195 7.46169 1.64195C6.58434 1.64195 5.74253 1.83815 4.95966 2.22511C4.86087 2.27394 4.82034 2.39361 4.86919 2.49243C4.91802 2.59122 5.03767 2.63174 5.13651 2.58289C5.86391 2.22336 6.64623 2.04105 7.46169 2.04105C8.76872 2.04105 10.0237 2.5258 10.9956 3.406C11.1218 3.5203 11.2801 3.57708 11.438 3.57705C11.5417 3.57705 11.6451 3.55239 11.739 3.50351C12.6758 4.554 13.1899 5.89987 13.1899 7.31329V8.4817H12.8739C12.7892 8.21752 12.5414 8.02571 12.2495 8.02571H11.7935C11.432 8.02571 11.138 8.31977 11.138 8.68125V12.3291C11.138 12.6906 11.432 12.9847 11.7935 12.9847H12.2495C12.5414 12.9847 12.7892 12.7929 12.8739 12.5287H13.3894C13.8766 12.5287 14.273 12.1323 14.273 11.6451V9.36522C14.273 8.94667 13.9804 8.59544 13.589 8.50471ZM1.04949 11.6451V9.3652C1.04949 9.09809 1.26679 8.88077 1.53392 8.88077H2.01835V12.1295H1.53392C1.26679 12.1295 1.04949 11.9123 1.04949 11.6451ZM2.67388 8.42481H3.12986C3.27125 8.42481 3.3863 8.53983 3.3863 8.68125V12.3291C3.3863 12.4705 3.27125 12.5856 3.12986 12.5856H2.67388C2.53249 12.5856 2.41745 12.4705 2.41745 12.3291V8.68125C2.41745 8.53983 2.53247 8.42481 2.67388 8.42481ZM13.8739 11.6451C13.8739 11.9123 13.6566 12.1295 13.3895 12.1295H12.905V10.0492C12.905 9.93897 12.8157 9.84962 12.7055 9.84962C12.5953 9.84962 12.5059 9.93897 12.5059 10.0492V12.3291C12.5059 12.4705 12.3909 12.5855 12.2495 12.5855H11.7935C11.6521 12.5855 11.5371 12.4705 11.5371 12.3291V8.68125C11.5371 8.53986 11.6521 8.42481 11.7935 8.42481H12.2495C12.3909 8.42481 12.5059 8.53983 12.5059 8.68125V9.13723C12.5059 9.24744 12.5953 9.33678 12.7055 9.33678C12.8157 9.33678 12.905 9.24744 12.905 9.13723V8.8808H13.3895C13.6566 8.8808 13.8739 9.09809 13.8739 9.36522V11.6451Z" fill="white"/>
</svg>
